<?xml version="1.0" encoding="utf-8"?>
<!DOCTYPE svg PUBLIC "-//W3C//DTD SVG 1.1//EN"
 "http://www.w3.org/Graphics/SVG/1.1/DTD/svg11.dtd">
<svg class="escher-svg"
    xmlns="http://www.w3.org/2000/svg" width="3463.3057250976562" height="1884.5907592773438">
    <defs>
        <style type="text/css">svg.escher-svg #mouse-node {
  fill: none;
}
svg.escher-svg #canvas {
  stroke: #ccc;
  stroke-width: 7px;
  fill: white;
}
svg.escher-svg .resize-rect {
  fill: black;
  opacity: 0;
  stroke: none;
}
svg.escher-svg .label {
  font-family: sans-serif;
  font-style: italic;
  font-weight: bold;
  font-size: 8px;
  fill: black;
  stroke: none;
  text-rendering: optimizelegibility;
  cursor: default;
}
svg.escher-svg .reaction-label {
  font-size: 30px;
  fill: rgb(32, 32, 120);
  text-rendering: optimizelegibility;
}
svg.escher-svg .node-label {
  font-size: 20px;
}
svg.escher-svg .gene-label {
  font-size: 18px;
  fill: rgb(32, 32, 120);
  text-rendering: optimizelegibility;
  cursor: default;
}
svg.escher-svg .text-label .label {
  font-size: 50px;
}
svg.escher-svg .text-label-input {
  font-size: 50px;
}
svg.escher-svg .node-circle {
  stroke-width: 2px;
}
svg.escher-svg .midmarker-circle, svg.escher-svg .multimarker-circle {
  fill: white;
  fill-opacity: 0.2;
  stroke: rgb(50, 50, 50);
}
svg.escher-svg g.selected .node-circle{
  stroke-width: 6px;
  stroke: rgb(20, 113, 199);
}
svg.escher-svg g.selected .label {
  fill: rgb(20, 113, 199);
}
svg.escher-svg .metabolite-circle {
  stroke: rgb(162, 69, 16);
  fill: rgb(224, 134, 91);
}
svg.escher-svg g.selected .metabolite-circle {
  stroke: rgb(5, 2, 0);
}
svg.escher-svg .segment {
  stroke: #334E75;
  stroke-width: 10px;
  fill: none;
}
svg.escher-svg .arrowhead {
  fill: #334E75;
}
svg.escher-svg .stoichiometry-label-rect {
  fill: white;
  opacity: 0.5;
}
svg.escher-svg .stoichiometry-label {
  fill: #334E75;
  font-size: 17px;
}
svg.escher-svg .membrane {
  fill: none;
  stroke: rgb(255, 187, 0);
}
svg.escher-svg .brush .extent {
  fill-opacity: 0.1;
  fill: black;
  stroke: #fff;
  shape-rendering: crispEdges;
}
svg.escher-svg #brush-container .background {
  fill: none;
}
svg.escher-svg .bezier-circle {
  fill: rgb(255,255,255);
}
svg.escher-svg .bezier-circle.b1 {
  stroke: red;
}
svg.escher-svg .bezier-circle.b2 {
  stroke: blue;
}
svg.escher-svg .connect-line{
  stroke: rgb(200,200,200);
}
svg.escher-svg .direction-arrow {
  cursor: default;
  stroke: black;
  stroke-width: 1px;
  fill: white;
  opacity: 0.3;
}
svg.escher-svg .start-reaction-target {
  stroke: rgb(100,100,100);
  fill: none;
  opacity: 0.5;
}
svg.escher-svg .rotation-center-line {
  stroke: red;
  stroke-width: 5px;
}
svg.escher-svg .highlight {
  fill: #D97000;
  text-decoration: underline;
}
svg.escher-svg .node-to-combine {
  stroke-width: 12px !important;
}
</style>
    </defs>
    <g class="zoom-g" transform="translate(1198.8961791992188,599.5411376953125) scale(1)" style="">
        <g class="canvas-group">
            <rect id="mouse-node" width="0px" height="0px" pointer-events="all"/>
            <rect id="canvas" width="3463.3057250976562" height="1884.5907592773438" transform="translate(-1198.8961791992188,-599.5411376953125)" style="visibility: hidden;"/>
            <rect class="drag-rect resize-rect" transform="translate(-1248.8961791992188,-549.5411376953125)" height="1784.5907592773438" id="dragleft" width="100" cursor="ew-resize" style="pointer-events: auto;"/>
            <rect class="drag-rect resize-rect" transform="translate(2214.4095458984375,-549.5411376953125)" id="dragright" height="1784.5907592773438" width="100" cursor="ew-resize" style="pointer-events: auto;"/>
            <rect class="drag-rect resize-rect" transform="translate(-1148.8961791992188,-649.5411376953125)" height="100" width="3363.3057250976562" cursor="ns-resize" style="pointer-events: auto;"/>
            <rect class="drag-rect resize-rect" transform="translate(-1148.8961791992188,1235.0496215820312)" height="100" width="3363.3057250976562" cursor="ns-resize" style="pointer-events: auto;"/>
        </g>
        <g id="brush-container" fill="none" pointer-events="all"/>
        <g id="reactions">
            <g id="r0" class="reaction">
                <g class="reaction-label-group" transform="translate(-395.6481943130493,171.87815856933597)">
                    <text class="reaction-label label" visibility="visible">Hydrogen peroxide sink 18.6</text>
                    <g class="all-genes-label-group"/></g>
                <g class="segment-group" id="s0">
                    <path class="segment" d="M-325.6481943130493,211.87815856933597 -345.6481943130493,211.87815856933597" pointer-events="visibleStroke" style="stroke: rgb(255, 0, 0); stroke-width: 24.9938px;"/>
                    <g class="arrowheads"/>
                    <g class="stoichiometry-labels"/></g>
                <g class="segment-group" id="s1">
                    <path class="segment" d="M-377.02322483062744,215.66984558105472 -345.6481943130493,211.87815856933597" pointer-events="visibleStroke" style="stroke: rgb(255, 0, 0); stroke-width: 24.9938px;"/>
                    <g class="arrowheads"/>
                    <g class="stoichiometry-labels"/></g>
                <g class="segment-group" id="s2">
                    <path class="segment" d="M-325.6481943130493,211.87815856933597 C-283.6481943130493,211.87815856933594 233.1866455078125,200.50311279296875 236.94287412634145,200.50311279296875" pointer-events="visibleStroke" style="stroke: rgb(255, 0, 0); stroke-width: 24.9938px;"/>
                    <g class="arrowheads">
                        <path class="arrowhead" d="M-24.993771381471035,0 L0,24.993771381471035 L24.993771381471035,0 Z" transform="translate(236.94287412634145,200.50311279296875)rotate(270)" style="fill: rgb(255, 255, 255); stroke: rgb(255, 0, 0);"/>
                    </g>
                    <g class="stoichiometry-labels"/></g>
            </g>
            <g id="r1" class="reaction">
                <g class="reaction-label-group" transform="translate(-145.39735794067383,-180.74795150756836)">
                    <text class="reaction-label label" visibility="visible">NADH peroxidase 0.00</text>
                    <g class="all-genes-label-group"/></g>
                <g class="segment-group" id="s3">
                    <path class="segment" d="M-75.39735794067383,-140.74795150756836 -95.39735794067383,-140.74795150756836" pointer-events="visibleStroke" style="stroke: rgb(200, 200, 200); stroke-width: 12px;"/>
                    <g class="arrowheads"/>
                    <g class="stoichiometry-labels"/></g>
                <g class="segment-group" id="s4">
                    <path class="segment" d="M-115.39735794067383,-140.74795150756836 -95.39735794067383,-140.74795150756836" pointer-events="visibleStroke" style="stroke: rgb(200, 200, 200); stroke-width: 12px;"/>
                    <g class="arrowheads"/>
                    <g class="stoichiometry-labels"/></g>
                <g class="segment-group" id="s5">
                    <path class="segment" d="M-75.39735794067383,-140.74795150756836 C136.61964797973633,-175.20074081420898 233.1866455078125,200.50311279296875 261.9366455078125,200.50311279296875" pointer-events="visibleStroke" style="stroke: rgb(200, 200, 200); stroke-width: 12px;"/>
                    <g class="arrowheads"/>
                    <g class="stoichiometry-labels"/></g>
                <g class="segment-group" id="s6">
                    <path class="segment" d="M-115.39735794067383,-140.74795150756836 C-157.39735794067383,-140.74795150756836 -211.64735794067383,-140.74795150756836 -228.39735794067383,-140.74795150756833" pointer-events="visibleStroke" style="stroke: rgb(200, 200, 200); stroke-width: 12px;"/>
                    <g class="arrowheads">
                        <path class="arrowhead" d="M-12,0 L0,12 L12,0 Z" transform="translate(-228.39735794067383,-140.74795150756833)rotate(449.99999999999994)" style="fill: rgb(200, 200, 200); stroke: rgb(200, 200, 200);"/>
                    </g>
                    <g class="stoichiometry-labels">
                        <text class="stoichiometry-label" text-anchor="middle" transform="translate(-230.90614265560703,-112.17380227037921)" style="fill: rgb(200, 200, 200);">2</text>
                    </g>
                </g>
                <g class="segment-group" id="s7">
                    <path class="segment" d="M-75.39735794067383,-140.74795150756836 C-29.397357940673828,-140.74795150756836 -24.147357940673828,-122.74795150756836 0.04049088057080219,-78.31397737668934" pointer-events="visibleStroke" style="stroke: rgb(200, 200, 200); stroke-width: 12px;"/>
                    <g class="arrowheads"/>
                    <g class="stoichiometry-labels"/></g>
                <g class="segment-group" id="s8">
                    <path class="segment" d="M-115.39735794067383,-140.74795150756836 C-161.39735794067383,-140.74795150756836 -166.64735794067383,-158.74795150756836 -185.09791605466523,-192.64231011697478" pointer-events="visibleStroke" style="stroke: rgb(200, 200, 200); stroke-width: 12px;"/>
                    <g class="arrowheads">
                        <path class="arrowhead" d="M-12,0 L0,12 L12,0 Z" transform="translate(-185.09791605466523,-192.64231011697478)rotate(151.43812351587303)" style="fill: rgb(200, 200, 200); stroke: rgb(200, 200, 200);"/>
                    </g>
                    <g class="stoichiometry-labels"/></g>
                <g class="segment-group" id="s9">
                    <path class="segment" d="M-75.39735794067383,-140.74795150756836 C-29.397357940673828,-140.74795150756836 -24.147357940673828,-158.74795150756836 0.04049088057080219,-203.18192563844738" pointer-events="visibleStroke" style="stroke: rgb(200, 200, 200); stroke-width: 12px;"/>
                    <g class="arrowheads"/>
                    <g class="stoichiometry-labels"/></g>
            </g>
            <g id="r2" class="reaction">
                <g class="reaction-label-group" transform="translate(-687.512882232666,897.95654296875)">
                    <text class="reaction-label label" visibility="visible">Iron-sulfur cluster damage (peroxide, spontaneous) 0.0357</text>
                    <g class="all-genes-label-group"/></g>
                <g class="segment-group" id="s10">
                    <path class="segment" d="M-82.98073196411133,697.2130737304688 -102.98073196411133,697.2130737304688" pointer-events="visibleStroke" style="stroke: rgb(150, 150, 255); stroke-width: 16.0125px;"/>
                    <g class="arrowheads"/>
                    <g class="stoichiometry-labels"/></g>
                <g class="segment-group" id="s11">
                    <path class="segment" d="M-122.98073196411133,697.2130737304688 -102.98073196411133,697.2130737304688" pointer-events="visibleStroke" style="stroke: rgb(150, 150, 255); stroke-width: 16.0125px;"/>
                    <g class="arrowheads"/>
                    <g class="stoichiometry-labels"/></g>
                <g class="segment-group" id="s12">
                    <path class="segment" d="M-122.98073196411133,697.2130737304688 C-164.98073196411133,697.2130737304688 -219.23073196411133,697.2130737304688 -231.96824993396342,697.2130737304688" pointer-events="visibleStroke" style="stroke: rgb(150, 150, 255); stroke-width: 16.0125px;"/>
                    <g class="arrowheads">
                        <path class="arrowhead" d="M-16.012482030147904,0 L0,16.012482030147904 L16.012482030147904,0 Z" transform="translate(-231.96824993396342,697.2130737304688)rotate(90)" style="fill: rgb(150, 150, 255); stroke: rgb(150, 150, 255);"/>
                    </g>
                    <g class="stoichiometry-labels">
                        <text class="stoichiometry-label" text-anchor="middle" transform="translate(-238.48951667904458,725.787222967658)" style="fill: rgb(150, 150, 255);">2</text>
                    </g>
                </g>
                <g class="segment-group" id="s13">
                    <path class="segment" d="M-82.98073196411133,697.2130737304688 C-33.235862731933594,699.4600219726562 -31.730731964111328,715.2130737304688 -7.542883142866698,759.6470478613478" pointer-events="visibleStroke" style="stroke: rgb(150, 150, 255); stroke-width: 16.0125px;"/>
                    <g class="arrowheads"/>
                    <g class="stoichiometry-labels">
                        <text class="stoichiometry-label" text-anchor="middle" transform="translate(2.0643044630939245,754.2131075351507)" style="fill: rgb(150, 150, 255);">2</text>
                    </g>
                </g>
                <g class="segment-group" id="s14">
                    <path class="segment" d="M-122.98073196411133,697.2130737304688 C-168.98073196411133,697.2130737304688 -174.23073196411133,715.2130737304688 -190.76289208938707,745.5832641828272" pointer-events="visibleStroke" style="stroke: rgb(150, 150, 255); stroke-width: 16.0125px;"/>
                    <g class="arrowheads">
                        <path class="arrowhead" d="M-16.012482030147904,0 L0,16.012482030147904 L16.012482030147904,0 Z" transform="translate(-190.76289208938707,745.5832641828272)rotate(388.56187648412697)" style="fill: rgb(150, 150, 255); stroke: rgb(150, 150, 255);"/>
                    </g>
                    <g class="stoichiometry-labels">
                        <text class="stoichiometry-label" text-anchor="middle" transform="translate(-182.7609641510005,767.9661259724196)" style="fill: rgb(150, 150, 255);">2</text>
                    </g>
                </g>
                <g class="segment-group" id="s15">
                    <path class="segment" d="M-82.98073196411133,697.2130737304688 C142.51779556274414,734.6617431640625 233.1866455078125,200.50311279296875 261.9366455078125,200.50311279296875" pointer-events="visibleStroke" style="stroke: rgb(150, 150, 255); stroke-width: 16.0125px;"/>
                    <g class="arrowheads"/>
                    <g class="stoichiometry-labels"/></g>
                <g class="segment-group" id="s16">
                    <path class="segment" d="M-122.98073196411133,697.2130737304688 C-168.98073196411133,697.2130737304688 -174.23073196411133,679.2130737304688 -190.76289208938707,648.8428832781103" pointer-events="visibleStroke" style="stroke: rgb(150, 150, 255); stroke-width: 16.0125px;"/>
                    <g class="arrowheads">
                        <path class="arrowhead" d="M-16.012482030147904,0 L0,16.012482030147904 L16.012482030147904,0 Z" transform="translate(-190.76289208938707,648.8428832781103)rotate(151.43812351587303)" style="fill: rgb(150, 150, 255); stroke: rgb(150, 150, 255);"/>
                    </g>
                    <g class="stoichiometry-labels">
                        <text class="stoichiometry-label" text-anchor="middle" transform="translate(-208.02576839131657,654.2130399257868)" style="fill: rgb(150, 150, 255);">2</text>
                    </g>
                </g>
                <g class="segment-group" id="s17">
                    <path class="segment" d="M-82.98073196411133,697.2130737304688 C-29.49099349975586,692.71923828125 -31.730731964111328,679.2130737304688 -7.542883142866698,634.7790995995897" pointer-events="visibleStroke" style="stroke: rgb(150, 150, 255); stroke-width: 16.0125px;"/>
                    <g class="arrowheads"/>
                    <g class="stoichiometry-labels">
                        <text class="stoichiometry-label" text-anchor="middle" transform="translate(-23.20049977722214,640.4600214885179)" style="fill: rgb(150, 150, 255);">2</text>
                    </g>
                </g>
            </g>
            <g id="r3" class="reaction">
                <g class="reaction-label-group" transform="translate(413.14495849609375,-377.91529846191406)">
                    <text class="reaction-label label" visibility="visible">S-2-hydroxyglutarate oxidase 18.6</text>
                    <g class="all-genes-label-group"/></g>
                <g class="segment-group" id="s18">
                    <path class="segment" d="M900.2296752929688,-326.54026794433594 880.2296752929688,-326.54026794433594" pointer-events="visibleStroke" style="stroke: rgb(255, 0, 0); stroke-width: 25px;"/>
                    <g class="arrowheads"/>
                    <g class="stoichiometry-labels"/></g>
                <g class="segment-group" id="s19">
                    <path class="segment" d="M860.2296752929688,-326.54026794433594 880.2296752929688,-326.54026794433594" pointer-events="visibleStroke" style="stroke: rgb(255, 0, 0); stroke-width: 25px;"/>
                    <g class="arrowheads"/>
                    <g class="stoichiometry-labels"/></g>
                <g class="segment-group" id="s20">
                    <path class="segment" d="M900.2296752929688,-326.54026794433594 C942.2296752929688,-326.54026794433594 996.4796752929688,-326.54026794433594 1025.2296752929688,-326.54026794433594" pointer-events="visibleStroke" style="stroke: rgb(255, 0, 0); stroke-width: 25px;"/>
                    <g class="arrowheads"/>
                    <g class="stoichiometry-labels"/></g>
                <g class="segment-group" id="s21">
                    <path class="segment" d="M860.2296752929688,-326.54026794433594 C814.2296752929688,-326.54026794433594 808.9796752929688,-308.54026794433594 796.7445154451683,-286.06382614985813" pointer-events="visibleStroke" style="stroke: rgb(255, 0, 0); stroke-width: 25px;"/>
                    <g class="arrowheads">
                        <path class="arrowhead" d="M-25,0 L0,25 L25,0 Z" transform="translate(796.7445154451683,-286.06382614985813)rotate(388.56187648412697)" style="fill: rgb(255, 0, 0); stroke: rgb(255, 0, 0);"/>
                    </g>
                    <g class="stoichiometry-labels"/></g>
                <g class="segment-group" id="s22">
                    <path class="segment" d="M860.2296752929688,-326.54026794433594 C495.9369812011719,-330.3319549560547 551.6456604003906,189.12808227539062 346.88396627004136,198.09646760667042" pointer-events="visibleStroke" style="stroke: rgb(255, 0, 0); stroke-width: 25px;"/>
                    <g class="arrowheads">
                        <path class="arrowhead" d="M-25,0 L0,25 L25,0 Z" transform="translate(346.88396627004136,198.09646760667042)rotate(447.4920972198431)" style="fill: rgb(255, 0, 0); stroke: rgb(255, 0, 0);"/>
                    </g>
                    <g class="stoichiometry-labels"/></g>
                <g class="segment-group" id="s23">
                    <path class="segment" d="M900.2296752929688,-326.54026794433594 C946.2296752929688,-326.54026794433594 951.4796752929688,-308.54026794433594 975.6675241142134,-264.1062938134569" pointer-events="visibleStroke" style="stroke: rgb(255, 0, 0); stroke-width: 25px;"/>
                    <g class="arrowheads"/>
                    <g class="stoichiometry-labels"/></g>
            </g>
            <g id="r4" class="reaction">
                <g class="reaction-label-group" transform="translate(1115.7710571289062,-484.0823211669922)">
                    <text class="reaction-label label" visibility="visible">(S)-alpha-hydroxyglutarate dehydrogenase -18.6</text>
                    <g class="all-genes-label-group"/></g>
                <g class="segment-group" id="s24">
                    <path class="segment" d="M1210.2296752929688,-326.54026794433594 1230.2296752929688,-326.54026794433594" pointer-events="visibleStroke" style="stroke: rgb(255, 0, 0); stroke-width: 25px;"/>
                    <g class="arrowheads"/>
                    <g class="stoichiometry-labels"/></g>
                <g class="segment-group" id="s25">
                    <path class="segment" d="M1250.2296752929688,-326.54026794433594 1230.2296752929688,-326.54026794433594" pointer-events="visibleStroke" style="stroke: rgb(255, 0, 0); stroke-width: 25px;"/>
                    <g class="arrowheads"/>
                    <g class="stoichiometry-labels"/></g>
                <g class="segment-group" id="s26">
                    <path class="segment" d="M1210.2296752929688,-326.54026794433594 C1168.2296752929688,-326.54026794433594 1113.9796752929688,-326.54026794433594 1110.2296752929688,-326.54026794433594" pointer-events="visibleStroke" style="stroke: rgb(255, 0, 0); stroke-width: 25px;"/>
                    <g class="arrowheads">
                        <path class="arrowhead" d="M-25,0 L0,25 L25,0 Z" transform="translate(1110.2296752929688,-326.54026794433594)rotate(90)" style="fill: rgb(255, 0, 0); stroke: rgb(255, 0, 0);"/>
                    </g>
                    <g class="stoichiometry-labels"/></g>
                <g class="segment-group" id="s27">
                    <path class="segment" d="M1250.2296752929688,-326.54026794433594 C1292.2296752929688,-326.54026794433594 1346.4796752929688,-326.54026794433594 1350.2296752929688,-326.54026794433594" pointer-events="visibleStroke" style="stroke: rgb(255, 0, 0); stroke-width: 25px;"/>
                    <g class="arrowheads">
                        <path class="arrowhead" d="M-25,0 L0,25 L25,0 Z" transform="translate(1350.2296752929688,-326.54026794433594)rotate(270)" style="fill: rgb(255, 255, 255); stroke: rgb(255, 0, 0);"/>
                    </g>
                    <g class="stoichiometry-labels"/></g>
                <g class="segment-group" id="s28">
                    <path class="segment" d="M1250.2296752929688,-326.54026794433594 C1296.2296752929688,-326.54026794433594 1301.4796752929688,-344.54026794433594 1313.714835140769,-367.01670973881374" pointer-events="visibleStroke" style="stroke: rgb(255, 0, 0); stroke-width: 25px;"/>
                    <g class="arrowheads">
                        <path class="arrowhead" d="M-25,0 L0,25 L25,0 Z" transform="translate(1313.714835140769,-367.01670973881374)rotate(208.56187648412697)" style="fill: rgb(255, 255, 255); stroke: rgb(255, 0, 0);"/>
                    </g>
                    <g class="stoichiometry-labels"/></g>
                <g class="segment-group" id="s29">
                    <path class="segment" d="M1210.2296752929688,-326.54026794433594 C1164.2296752929688,-326.54026794433594 1136.2296752929688,-270.62347412109375 1123.9945154451684,-248.14703232661594" pointer-events="visibleStroke" style="stroke: rgb(255, 0, 0); stroke-width: 25px;"/>
                    <g class="arrowheads">
                        <path class="arrowhead" d="M-25,0 L0,25 L25,0 Z" transform="translate(1123.9945154451684,-248.14703232661594)rotate(388.56187648412697)" style="fill: rgb(255, 0, 0); stroke: rgb(255, 0, 0);"/>
                    </g>
                    <g class="stoichiometry-labels"/></g>
                <g class="segment-group" id="s30">
                    <path class="segment" d="M1250.2296752929688,-326.54026794433594 C1296.2296752929688,-326.54026794433594 1301.4796752929688,-308.54026794433594 1313.714835140769,-286.06382614985813" pointer-events="visibleStroke" style="stroke: rgb(255, 0, 0); stroke-width: 25px;"/>
                    <g class="arrowheads">
                        <path class="arrowhead" d="M-25,0 L0,25 L25,0 Z" transform="translate(1313.714835140769,-286.06382614985813)rotate(331.43812351587303)" style="fill: rgb(255, 255, 255); stroke: rgb(255, 0, 0);"/>
                    </g>
                    <g class="stoichiometry-labels"/></g>
            </g>
            <g id="r5" class="reaction">
                <g class="reaction-label-group" transform="translate(822.6463623046875,-108.70608520507812)">
                    <text class="reaction-label label" visibility="visible">L-aspartate oxidase 0.0209</text>
                    <g class="all-genes-label-group"/></g>
                <g class="segment-group" id="s31">
                    <path class="segment" d="M892.6463623046875,-68.70608520507812 872.6463623046875,-68.70608520507812" pointer-events="visibleStroke" style="stroke: rgb(150, 150, 255); stroke-width: 16.0053px;"/>
                    <g class="arrowheads"/>
                    <g class="stoichiometry-labels"/></g>
                <g class="segment-group" id="s32">
                    <path class="segment" d="M852.6463623046875,-68.70608520507812 872.6463623046875,-68.70608520507812" pointer-events="visibleStroke" style="stroke: rgb(150, 150, 255); stroke-width: 16.0053px;"/>
                    <g class="arrowheads"/>
                    <g class="stoichiometry-labels"/></g>
                <g class="segment-group" id="s33">
                    <path class="segment" d="M892.6463623046875,-68.70608520507812 C934.6463623046875,-68.70608520507812 988.8963623046875,-68.70608520507812 1017.6463623046875,-68.70608520507812" pointer-events="visibleStroke" style="stroke: rgb(150, 150, 255); stroke-width: 16.0053px;"/>
                    <g class="arrowheads"/>
                    <g class="stoichiometry-labels"/></g>
                <g class="segment-group" id="s34">
                    <path class="segment" d="M852.6463623046875,-68.70608520507812 C586.937255859375,-95.24783325195312 517.5205383300781,196.71144104003906 337.9354116425121,199.72995376977565" pointer-events="visibleStroke" style="stroke: rgb(150, 150, 255); stroke-width: 16.0053px;"/>
                    <g class="arrowheads">
                        <path class="arrowhead" d="M-16.00526340311434,0 L0,16.00526340311434 L16.00526340311434,0 Z" transform="translate(337.9354116425121,199.72995376977565)rotate(449.0370485639683)" style="fill: rgb(150, 150, 255); stroke: rgb(150, 150, 255);"/>
                    </g>
                    <g class="stoichiometry-labels"/></g>
                <g class="segment-group" id="s35">
                    <path class="segment" d="M852.6463623046875,-68.70608520507812 C806.6463623046875,-68.70608520507812 801.3963623046875,-86.70608520507812 784.8607508992619,-117.08261578689707" pointer-events="visibleStroke" style="stroke: rgb(150, 150, 255); stroke-width: 16.0053px;"/>
                    <g class="arrowheads">
                        <path class="arrowhead" d="M-16.00526340311434,0 L0,16.00526340311434 L16.00526340311434,0 Z" transform="translate(784.8607508992619,-117.08261578689707)rotate(151.43812351587303)" style="fill: rgb(150, 150, 255); stroke: rgb(150, 150, 255);"/>
                    </g>
                    <g class="stoichiometry-labels"/></g>
                <g class="segment-group" id="s36">
                    <path class="segment" d="M852.6463623046875,-68.70608520507812 C806.6463623046875,-68.70608520507812 801.3963623046875,-50.706085205078125 784.8607508992619,-20.329554623259185" pointer-events="visibleStroke" style="stroke: rgb(150, 150, 255); stroke-width: 16.0053px;"/>
                    <g class="arrowheads">
                        <path class="arrowhead" d="M-16.00526340311434,0 L0,16.00526340311434 L16.00526340311434,0 Z" transform="translate(784.8607508992619,-20.329554623259185)rotate(388.56187648412697)" style="fill: rgb(150, 150, 255); stroke: rgb(150, 150, 255);"/>
                    </g>
                    <g class="stoichiometry-labels"/></g>
                <g class="segment-group" id="s37">
                    <path class="segment" d="M892.6463623046875,-68.70608520507812 C938.6463623046875,-68.70608520507812 943.8963623046875,-50.706085205078125 968.0842111259321,-6.272111074199099" pointer-events="visibleStroke" style="stroke: rgb(150, 150, 255); stroke-width: 16.0053px;"/>
                    <g class="arrowheads"/>
                    <g class="stoichiometry-labels"/></g>
            </g>
            <g id="r6" class="reaction">
                <g class="reaction-label-group" transform="translate(459.12542724609375,168.52850341796875)">
                    <text class="reaction-label label" visibility="visible">Pyridoxine 5'-phosphate oxidase 0.00204</text>
                    <g class="all-genes-label-group"/></g>
                <g class="segment-group" id="s38">
                    <path class="segment" d="M904.0213012695312,192.9197540283203 884.0213012695312,192.9197540283203" pointer-events="visibleStroke" style="stroke: rgb(190, 190, 211); stroke-width: 12.8165px;"/>
                    <g class="arrowheads"/>
                    <g class="stoichiometry-labels"/></g>
                <g class="segment-group" id="s39">
                    <path class="segment" d="M864.0213012695312,192.9197540283203 884.0213012695312,192.9197540283203" pointer-events="visibleStroke" style="stroke: rgb(190, 190, 211); stroke-width: 12.8165px;"/>
                    <g class="arrowheads"/>
                    <g class="stoichiometry-labels"/></g>
                <g class="segment-group" id="s40">
                    <path class="segment" d="M864.0213012695312,192.9197540283203 C822.0213012695312,192.9197540283203 350.6866455078125,200.50311279296875 334.7531847542271,200.50311279296875" pointer-events="visibleStroke" style="stroke: rgb(190, 190, 211); stroke-width: 12.8165px;"/>
                    <g class="arrowheads">
                        <path class="arrowhead" d="M-12.816539246414596,0 L0,12.816539246414596 L12.816539246414596,0 Z" transform="translate(334.7531847542271,200.50311279296875)rotate(90)" style="fill: rgb(190, 190, 211); stroke: rgb(190, 190, 211);"/>
                    </g>
                    <g class="stoichiometry-labels"/></g>
                <g class="segment-group" id="s41">
                    <path class="segment" d="M904.0213012695312,192.9197540283203 C950.0213012695312,192.9197540283203 955.2713012695312,210.9197540283203 979.4591500907759,255.35372815919933" pointer-events="visibleStroke" style="stroke: rgb(190, 190, 211); stroke-width: 12.8165px;"/>
                    <g class="arrowheads"/>
                    <g class="stoichiometry-labels"/></g>
                <g class="segment-group" id="s42">
                    <path class="segment" d="M904.0213012695312,192.9197540283203 C946.0213012695312,192.9197540283203 1000.2713012695312,192.9197540283203 1029.0213012695312,192.9197540283203" pointer-events="visibleStroke" style="stroke: rgb(190, 190, 211); stroke-width: 12.8165px;"/>
                    <g class="arrowheads"/>
                    <g class="stoichiometry-labels"/></g>
                <g class="segment-group" id="s43">
                    <path class="segment" d="M864.0213012695312,192.9197540283203 C818.0213012695312,192.9197540283203 812.7713012695312,210.9197540283203 794.71113674142,244.0969451614432" pointer-events="visibleStroke" style="stroke: rgb(190, 190, 211); stroke-width: 12.8165px;"/>
                    <g class="arrowheads">
                        <path class="arrowhead" d="M-12.816539246414596,0 L0,12.816539246414596 L12.816539246414596,0 Z" transform="translate(794.71113674142,244.0969451614432)rotate(388.56187648412697)" style="fill: rgb(190, 190, 211); stroke: rgb(190, 190, 211);"/>
                    </g>
                    <g class="stoichiometry-labels"/></g>
            </g>
            <g id="r7" class="reaction">
                <g class="reaction-label-group" transform="translate(1460.8137817382812,202.21158599853516)">
                    <text class="reaction-label label" visibility="visible">Pyridoxine 5'-phosphate synthase 0.00204</text>
                    <g class="all-genes-label-group"/></g>
                <g class="segment-group" id="s44">
                    <path class="segment" d="M1254.0213012695312,192.9197540283203 1234.0213012695312,192.9197540283203" pointer-events="visibleStroke" style="stroke: rgb(190, 190, 211); stroke-width: 12.8165px;"/>
                    <g class="arrowheads"/>
                    <g class="stoichiometry-labels"/></g>
                <g class="segment-group" id="s45">
                    <path class="segment" d="M1214.0213012695312,192.9197540283203 1234.0213012695312,192.9197540283203" pointer-events="visibleStroke" style="stroke: rgb(190, 190, 211); stroke-width: 12.8165px;"/>
                    <g class="arrowheads"/>
                    <g class="stoichiometry-labels"/></g>
                <g class="segment-group" id="s46">
                    <path class="segment" d="M1214.0213012695312,192.9197540283203 C1168.0213012695312,192.9197540283203 1234.6465454101562,191.04486465454102 1213.3086028428315,99.01339062503571" pointer-events="visibleStroke" style="stroke: rgb(190, 190, 211); stroke-width: 12.8165px;"/>
                    <g class="arrowheads">
                        <path class="arrowhead" d="M-12.816539246414596,0 L0,12.816539246414596 L12.816539246414596,0 Z" transform="translate(1213.3086028428315,99.01339062503571)rotate(166.94634150123386)" style="fill: rgb(190, 190, 211); stroke: rgb(190, 190, 211);"/>
                    </g>
                    <g class="stoichiometry-labels"/></g>
                <g class="segment-group" id="s47">
                    <path class="segment" d="M1254.0213012695312,192.9197540283203 C1296.0213012695312,192.9197540283203 1350.2713012695312,192.9197540283203 1379.0213012695312,192.9197540283203" pointer-events="visibleStroke" style="stroke: rgb(190, 190, 211); stroke-width: 12.8165px;"/>
                    <g class="arrowheads"/>
                    <g class="stoichiometry-labels"/></g>
                <g class="segment-group" id="s48">
                    <path class="segment" d="M1214.0213012695312,192.9197540283203 C1168.0213012695312,192.9197540283203 1181.7296752929688,155.96136474609375 1163.6695107648575,122.78417361297087" pointer-events="visibleStroke" style="stroke: rgb(190, 190, 211); stroke-width: 12.8165px;"/>
                    <g class="arrowheads">
                        <path class="arrowhead" d="M-12.816539246414596,0 L0,12.816539246414596 L12.816539246414596,0 Z" transform="translate(1163.6695107648575,122.78417361297087)rotate(151.43812351587303)" style="fill: rgb(190, 190, 211); stroke: rgb(190, 190, 211);"/>
                    </g>
                    <g class="stoichiometry-labels">
                        <text class="stoichiometry-label" text-anchor="middle" transform="translate(1147.9346388657634,130.96133094141177)" style="fill: rgb(190, 190, 211);">2</text>
                    </g>
                </g>
                <g class="segment-group" id="s49">
                    <path class="segment" d="M1214.0213012695312,192.9197540283203 C1168.0213012695312,192.9197540283203 1162.7713012695312,210.9197540283203 1144.71113674142,244.0969451614432" pointer-events="visibleStroke" style="stroke: rgb(190, 190, 211); stroke-width: 12.8165px;"/>
                    <g class="arrowheads">
                        <path class="arrowhead" d="M-12.816539246414596,0 L0,12.816539246414596 L12.816539246414596,0 Z" transform="translate(1144.71113674142,244.0969451614432)rotate(388.56187648412697)" style="fill: rgb(190, 190, 211); stroke: rgb(190, 190, 211);"/>
                    </g>
                    <g class="stoichiometry-labels"/></g>
                <g class="segment-group" id="s50">
                    <path class="segment" d="M1254.0213012695312,192.9197540283203 C1300.0213012695312,192.9197540283203 1305.2713012695312,174.9197540283203 1329.459150090776,130.4857798974413" pointer-events="visibleStroke" style="stroke: rgb(190, 190, 211); stroke-width: 12.8165px;"/>
                    <g class="arrowheads"/>
                    <g class="stoichiometry-labels"/></g>
                <g class="segment-group" id="s51">
                    <path class="segment" d="M1214.0213012695312,192.9197540283203 C1168.0213012695312,192.9197540283203 1200.5213012695312,225.12806701660156 1179.1833587022065,317.1595410461069" pointer-events="visibleStroke" style="stroke: rgb(190, 190, 211); stroke-width: 12.8165px;"/>
                    <g class="arrowheads">
                        <path class="arrowhead" d="M-12.816539246414596,0 L0,12.816539246414596 L12.816539246414596,0 Z" transform="translate(1179.1833587022065,317.1595410461069)rotate(373.05365849876614)" style="fill: rgb(190, 190, 211); stroke: rgb(190, 190, 211);"/>
                    </g>
                    <g class="stoichiometry-labels"/></g>
                <g class="segment-group" id="s52">
                    <path class="segment" d="M1214.0213012695312,192.9197540283203 C1172.0213012695312,192.9197540283203 1117.7713012695312,192.9197540283203 1101.8378405159458,192.9197540283203" pointer-events="visibleStroke" style="stroke: rgb(190, 190, 211); stroke-width: 12.8165px;"/>
                    <g class="arrowheads">
                        <path class="arrowhead" d="M-12.816539246414596,0 L0,12.816539246414596 L12.816539246414596,0 Z" transform="translate(1101.8378405159458,192.9197540283203)rotate(90)" style="fill: rgb(190, 190, 211); stroke: rgb(190, 190, 211);"/>
                    </g>
                    <g class="stoichiometry-labels"/></g>
                <g class="segment-group" id="s53">
                    <path class="segment" d="M1254.0213012695312,192.9197540283203 C1300.0213012695312,192.9197540283203 1305.2713012695312,210.9197540283203 1329.459150090776,255.35372815919933" pointer-events="visibleStroke" style="stroke: rgb(190, 190, 211); stroke-width: 12.8165px;"/>
                    <g class="arrowheads"/>
                    <g class="stoichiometry-labels"/></g>
                <g class="segment-group" id="s54">
                    <path class="segment" d="M1214.0213012695312,192.9197540283203 C1168.0213012695312,192.9197540283203 1268.6047973632812,190.04457092285156 1249.0113336306372,343.4923289974538" pointer-events="visibleStroke" style="stroke: rgb(190, 190, 211); stroke-width: 12.8165px;"/>
                    <g class="arrowheads">
                        <path class="arrowhead" d="M-12.816539246414596,0 L0,12.816539246414596 L12.816539246414596,0 Z" transform="translate(1249.0113336306372,343.4923289974538)rotate(367.276617197731)" style="fill: rgb(190, 190, 211); stroke: rgb(190, 190, 211);"/>
                    </g>
                    <g class="stoichiometry-labels"/></g>
            </g>
            <g id="r8" class="reaction">
                <g class="reaction-label-group" transform="translate(730.24072265625,482.2183837890625)">
                    <text class="reaction-label label" visibility="visible">Superoxide dismutase 0.00</text>
                    <g class="all-genes-label-group"/></g>
                <g class="segment-group" id="s55">
                    <path class="segment" d="M873.6878662109375,530.3791809082031 853.6878662109375,530.3791809082031" pointer-events="visibleStroke" style="stroke: rgb(200, 200, 200); stroke-width: 12px;"/>
                    <g class="arrowheads"/>
                    <g class="stoichiometry-labels"/></g>
                <g class="segment-group" id="s56">
                    <path class="segment" d="M833.6878662109375,530.3791809082031 853.6878662109375,530.3791809082031" pointer-events="visibleStroke" style="stroke: rgb(200, 200, 200); stroke-width: 12px;"/>
                    <g class="arrowheads"/>
                    <g class="stoichiometry-labels"/></g>
                <g class="segment-group" id="s57">
                    <path class="segment" d="M833.6878662109375,530.3791809082031 C689.3125610351562,579.6710510253906 544.0622863769531,189.12808227539062 333.893965153278,198.61014470865294" pointer-events="visibleStroke" style="stroke: rgb(200, 200, 200); stroke-width: 12px;"/>
                    <g class="arrowheads">
                        <path class="arrowhead" d="M-12,0 L0,12 L12,0 Z" transform="translate(333.893965153278,198.61014470865294)rotate(447.4167658192495)" style="fill: rgb(200, 200, 200); stroke: rgb(200, 200, 200);"/>
                    </g>
                    <g class="stoichiometry-labels"/></g>
                <g class="segment-group" id="s58">
                    <path class="segment" d="M873.6878662109375,530.3791809082031 C915.6878662109375,530.3791809082031 969.9378662109375,530.3791809082031 998.6878662109375,530.3791809082031" pointer-events="visibleStroke" style="stroke: rgb(200, 200, 200); stroke-width: 12px;"/>
                    <g class="arrowheads"/>
                    <g class="stoichiometry-labels">
                        <text class="stoichiometry-label" text-anchor="middle" transform="translate(989.1966509258707,515.8050316710139)" style="fill: rgb(200, 200, 200);">2</text>
                    </g>
                </g>
                <g class="segment-group" id="s59">
                    <path class="segment" d="M833.6878662109375,530.3791809082031 C772.5211791992188,526.5874938964844 782.4378662109375,548.3791809082031 763.9873080969461,582.2735395176096" pointer-events="visibleStroke" style="stroke: rgb(200, 200, 200); stroke-width: 12px;"/>
                    <g class="arrowheads">
                        <path class="arrowhead" d="M-12,0 L0,12 L12,0 Z" transform="translate(763.9873080969461,582.2735395176096)rotate(388.56187648412697)" style="fill: rgb(200, 200, 200); stroke: rgb(200, 200, 200);"/>
                    </g>
                    <g class="stoichiometry-labels"/></g>
                <g class="segment-group" id="s60">
                    <path class="segment" d="M873.6878662109375,530.3791809082031 C919.6878662109375,530.3791809082031 924.9378662109375,548.3791809082031 949.1257150321821,592.8131550390822" pointer-events="visibleStroke" style="stroke: rgb(200, 200, 200); stroke-width: 12px;"/>
                    <g class="arrowheads"/>
                    <g class="stoichiometry-labels">
                        <text class="stoichiometry-label" text-anchor="middle" transform="translate(958.7329026381427,587.3792147128851)" style="fill: rgb(200, 200, 200);">2</text>
                    </g>
                </g>
            </g>
            <g id="r9" class="reaction">
                <g class="reaction-label-group" transform="translate(1132.6527099609375,558.1379699707031)">
                    <text class="reaction-label label" visibility="visible">Quinol monooxygenase (Ubiquinol-8) 0.00</text>
                    <g class="all-genes-label-group"/></g>
                <g class="segment-group" id="s61">
                    <path class="segment" d="M1153.6878662109375,610.3791809082031 1133.6878662109375,610.3791809082031" pointer-events="visibleStroke" style="stroke: rgb(200, 200, 200); stroke-width: 12px;"/>
                    <g class="arrowheads"/>
                    <g class="stoichiometry-labels"/></g>
                <g class="segment-group" id="s62">
                    <path class="segment" d="M1113.6878662109375,610.3791809082031 1133.6878662109375,610.3791809082031" pointer-events="visibleStroke" style="stroke: rgb(200, 200, 200); stroke-width: 12px;"/>
                    <g class="arrowheads"/>
                    <g class="stoichiometry-labels"/></g>
                <g class="segment-group" id="s63">
                    <path class="segment" d="M1113.6878662109375,610.3791809082031 C1067.6878662109375,610.3791809082031 1062.4378662109375,596.1708679199219 1047.8579653737218,567.7490524371369" pointer-events="visibleStroke" style="stroke: rgb(200, 200, 200); stroke-width: 12px;"/>
                    <g class="arrowheads">
                        <path class="arrowhead" d="M-12,0 L0,12 L12,0 Z" transform="translate(1047.8579653737218,567.7490524371369)rotate(152.8429592026585)" style="fill: rgb(200, 200, 200); stroke: rgb(200, 200, 200);"/>
                    </g>
                    <g class="stoichiometry-labels">
                        <text class="stoichiometry-label" text-anchor="middle" transform="translate(1027.5170882998373,582.3639480975849)" style="fill: rgb(200, 200, 200);">2</text>
                    </g>
                </g>
                <g class="segment-group" id="s64">
                    <path class="segment" d="M1153.6878662109375,610.3791809082031 C1199.6878662109375,610.3791809082031 1204.9378662109375,628.3791809082031 1229.1257150321821,672.8131550390822" pointer-events="visibleStroke" style="stroke: rgb(200, 200, 200); stroke-width: 12px;"/>
                    <g class="arrowheads"/>
                    <g class="stoichiometry-labels">
                        <text class="stoichiometry-label" text-anchor="middle" transform="translate(1238.7329026381428,667.3792147128851)" style="fill: rgb(200, 200, 200);">2</text>
                    </g>
                </g>
                <g class="segment-group" id="s65">
                    <path class="segment" d="M1113.6878662109375,610.3791809082031 C1071.6878662109375,610.3791809082031 1017.4378662109375,610.3791809082031 990.6878662109375,610.3791809082031" pointer-events="visibleStroke" style="stroke: rgb(200, 200, 200); stroke-width: 12px;"/>
                    <g class="arrowheads">
                        <path class="arrowhead" d="M-12,0 L0,12 L12,0 Z" transform="translate(990.6878662109375,610.3791809082031)rotate(90)" style="fill: rgb(200, 200, 200); stroke: rgb(200, 200, 200);"/>
                    </g>
                    <g class="stoichiometry-labels">
                        <text class="stoichiometry-label" text-anchor="middle" transform="translate(985.0153430676487,631.7619470663293)" style="fill: rgb(200, 200, 200);">2</text>
                    </g>
                </g>
                <g class="segment-group" id="s66">
                    <path class="segment" d="M1113.6878662109375,610.3791809082031 C1067.6878662109375,610.3791809082031 1062.4378662109375,628.3791809082031 1043.987308096946,662.2735395176096" pointer-events="visibleStroke" style="stroke: rgb(200, 200, 200); stroke-width: 12px;"/>
                    <g class="arrowheads">
                        <path class="arrowhead" d="M-12,0 L0,12 L12,0 Z" transform="translate(1043.987308096946,662.2735395176096)rotate(388.56187648412697)" style="fill: rgb(200, 200, 200); stroke: rgb(200, 200, 200);"/>
                    </g>
                    <g class="stoichiometry-labels"/></g>
                <g class="segment-group" id="s67">
                    <path class="segment" d="M1153.6878662109375,610.3791809082031 C1195.6878662109375,610.3791809082031 1249.9378662109375,610.3791809082031 1278.6878662109375,610.3791809082031" pointer-events="visibleStroke" style="stroke: rgb(200, 200, 200); stroke-width: 12px;"/>
                    <g class="arrowheads"/>
                    <g class="stoichiometry-labels"/></g>
            </g>
            <g id="r11" class="reaction">
                <g class="reaction-label-group" transform="translate(811.271240234375,861.9636993408203)">
                    <text class="reaction-label label" visibility="visible">Malate oxidase 0.00</text>
                    <g class="all-genes-label-group"/></g>
                <g class="segment-group" id="s76">
                    <path class="segment" d="M881.271240234375,901.9636993408203 861.271240234375,901.9636993408203" pointer-events="visibleStroke" style="stroke: rgb(200, 200, 200); stroke-width: 12px;"/>
                    <g class="arrowheads"/>
                    <g class="stoichiometry-labels"/></g>
                <g class="segment-group" id="s77">
                    <path class="segment" d="M841.271240234375,901.9636993408203 861.271240234375,901.9636993408203" pointer-events="visibleStroke" style="stroke: rgb(200, 200, 200); stroke-width: 12px;"/>
                    <g class="arrowheads"/>
                    <g class="stoichiometry-labels"/></g>
                <g class="segment-group" id="s78">
                    <path class="segment" d="M841.271240234375,901.9636993408203 C628.6456909179688,932.2971343994141 646.4375610351562,189.12806701660156 333.9150404380887,199.1561313239929" pointer-events="visibleStroke" style="stroke: rgb(200, 200, 200); stroke-width: 12px;"/>
                    <g class="arrowheads">
                        <path class="arrowhead" d="M-12,0 L0,12 L12,0 Z" transform="translate(333.9150404380887,199.1561313239929)rotate(448.1621526353471)" style="fill: rgb(200, 200, 200); stroke: rgb(200, 200, 200);"/>
                    </g>
                    <g class="stoichiometry-labels"/></g>
                <g class="segment-group" id="s79">
                    <path class="segment" d="M881.271240234375,901.9636993408203 C923.271240234375,901.9636993408203 977.521240234375,901.9636993408203 1006.271240234375,901.9636993408203" pointer-events="visibleStroke" style="stroke: rgb(200, 200, 200); stroke-width: 12px;"/>
                    <g class="arrowheads"/>
                    <g class="stoichiometry-labels"/></g>
                <g class="segment-group" id="s80">
                    <path class="segment" d="M881.271240234375,901.9636993408203 C927.271240234375,901.9636993408203 932.521240234375,919.9636993408203 956.7090890556196,964.3976734716994" pointer-events="visibleStroke" style="stroke: rgb(200, 200, 200); stroke-width: 12px;"/>
                    <g class="arrowheads"/>
                    <g class="stoichiometry-labels"/></g>
                <g class="segment-group" id="s81">
                    <path class="segment" d="M841.271240234375,901.9636993408203 C795.271240234375,901.9636993408203 790.021240234375,919.9636993408203 771.5706821203836,953.8580579502268" pointer-events="visibleStroke" style="stroke: rgb(200, 200, 200); stroke-width: 12px;"/>
                    <g class="arrowheads">
                        <path class="arrowhead" d="M-12,0 L0,12 L12,0 Z" transform="translate(771.5706821203836,953.8580579502268)rotate(388.56187648412697)" style="fill: rgb(200, 200, 200); stroke: rgb(200, 200, 200);"/>
                    </g>
                    <g class="stoichiometry-labels"/></g>
            </g>
        </g>
        <g id="nodes">
            <g class="node" id="n0">
                <circle class="node-circle metabolite-circle" transform="translate(291.9366455078125,200.50311279296875)" r="20"/>
                <text class="node-label label" visibility="visible" transform="translate(259.5366455078125,240.50311279296875)">Hydrogen peroxide</text>
            </g>
            <g class="node" id="n1">
                <circle class="node-circle multimarker-circle" transform="translate(-325.6481943130493,211.87815856933597)" r="5" style="visibility: hidden;"/>
            </g>
            <g class="node" id="n2">
                <circle class="node-circle midmarker-circle" transform="translate(-345.6481943130493,211.87815856933597)" r="5" style="visibility: hidden;"/>
            </g>
            <g class="node" id="n3">
                <circle class="node-circle multimarker-circle" transform="translate(-377.02322483062744,215.66984558105472)" r="5" style="visibility: hidden;"/>
            </g>
            <g class="node" id="n4">
                <circle class="node-circle multimarker-circle" transform="translate(-75.39735794067383,-140.74795150756836)" r="5" style="visibility: hidden;"/>
            </g>
            <g class="node" id="n5">
                <circle class="node-circle midmarker-circle" transform="translate(-95.39735794067383,-140.74795150756836)" r="5" style="visibility: hidden;"/>
            </g>
            <g class="node" id="n6">
                <circle class="node-circle multimarker-circle" transform="translate(-115.39735794067383,-140.74795150756836)" r="5" style="visibility: hidden;"/>
            </g>
            <g class="node" id="n7">
                <circle class="node-circle metabolite-circle" transform="translate(-270.3973579406738,-140.7479515075683)" r="20"/>
                <text class="node-label label" visibility="visible" transform="translate(-297.3973579406738,-100.7479515075683)">H2O H2O</text>
            </g>
            <g class="node" id="n8">
                <circle class="node-circle metabolite-circle" transform="translate(9.602642059326172,-60.74795150756836)" r="10"/>
                <text class="node-label label" visibility="visible" transform="translate(-6.597357940673817,-20.74795150756836)">H+</text>
            </g>
            <g class="node" id="n9">
                <circle class="node-circle metabolite-circle" transform="translate(-200.39735794067383,-220.74795150756836)" r="10"/>
                <text class="node-label label" visibility="visible" transform="translate(-473.85649490356445,-244.5396385192871)">Nicotinamide adenine dinucleotide</text>
            </g>
            <g class="node" id="n10">
                <circle class="node-circle metabolite-circle" transform="translate(9.602642059326172,-220.74795150756836)" r="10"/>
                <text class="node-label label" visibility="visible" transform="translate(-22.797357940673805,-240.74795150756836)">Nicotinamide adenine dinucleotide - reduced</text>
            </g>
            <g class="node" id="n11">
                <circle class="node-circle multimarker-circle" transform="translate(-82.98073196411133,697.2130737304688)" r="5" style="visibility: hidden;"/>
            </g>
            <g class="node" id="n12">
                <circle class="node-circle midmarker-circle" transform="translate(-102.98073196411133,697.2130737304688)" r="5" style="visibility: hidden;"/>
            </g>
            <g class="node" id="n13">
                <circle class="node-circle multimarker-circle" transform="translate(-122.98073196411133,697.2130737304688)" r="5" style="visibility: hidden;"/>
            </g>
            <g class="node" id="n14">
                <circle class="node-circle metabolite-circle" transform="translate(-277.9807319641113,697.2130737304688)" r="20"/>
                <text class="node-label label" visibility="visible" transform="translate(-670.7753608703613,741.29345703125)">[3Fe-4S] damaged iron-sulfur cluster</text>
            </g>
            <g class="node" id="n15">
                <circle class="node-circle metabolite-circle" transform="translate(2.019268035888672,777.2130737304688)" r="10"/>
                <text class="node-label label" visibility="visible" transform="translate(-35.78073196411134,817.2130737304688)">[4Fe-4S] iron-sulfur cluster</text>
            </g>
            <g class="node" id="n16">
                <circle class="node-circle metabolite-circle" transform="translate(-207.98073196411133,777.2130737304688)" r="10"/>
                <text class="node-label label" visibility="visible" transform="translate(-234.98073196411133,817.2130737304688)">Iron (Fe3+)</text>
            </g>
            <g class="node" id="n17">
                <circle class="node-circle metabolite-circle" transform="translate(-207.98073196411133,617.2130737304688)" r="10"/>
                <text class="node-label label" visibility="visible" transform="translate(-234.98073196411133,597.2130737304688)">H2O H2O</text>
            </g>
            <g class="node" id="n18">
                <circle class="node-circle metabolite-circle" transform="translate(2.019268035888672,617.2130737304688)" r="10"/>
                <text class="node-label label" visibility="visible" transform="translate(-14.180731964111317,597.2130737304688)">H+</text>
            </g>
            <g class="node" id="n19">
                <circle class="node-circle multimarker-circle" transform="translate(900.2296752929688,-326.54026794433594)" r="5" style="visibility: hidden;"/>
            </g>
            <g class="node" id="n20">
                <circle class="node-circle midmarker-circle" transform="translate(880.2296752929688,-326.54026794433594)" r="5" style="visibility: hidden;"/>
            </g>
            <g class="node" id="n21">
                <circle class="node-circle multimarker-circle" transform="translate(860.2296752929688,-326.54026794433594)" r="5" style="visibility: hidden;"/>
            </g>
            <g class="node" id="n22">
                <circle class="node-circle metabolite-circle" transform="translate(1055.2296752929688,-326.54026794433594)" r="20"/>
                <text class="node-label label" visibility="visible" transform="translate(938.3794311523437,-350.99879455566406)">(S)-2-Hydroxyglutarate</text>
            </g>
            <g class="node" id="n23">
                <circle class="node-circle metabolite-circle" transform="translate(775.2296752929688,-246.54026794433594)" r="10"/>
                <text class="node-label label" visibility="visible" transform="translate(748.2296752929688,-206.54026794433594)">2-Oxoglutarate</text>
            </g>
            <g class="node" id="n24">
                <circle class="node-circle metabolite-circle" transform="translate(985.2296752929688,-246.54026794433594)" r="10"/>
                <text class="node-label label" visibility="visible" transform="translate(963.6296752929687,-206.54026794433594)">O2 O2</text>
            </g>
            <g class="node" id="n25">
                <circle class="node-circle multimarker-circle" transform="translate(1210.2296752929688,-326.54026794433594)" r="5" style="visibility: hidden;"/>
            </g>
            <g class="node" id="n26">
                <circle class="node-circle midmarker-circle" transform="translate(1230.2296752929688,-326.54026794433594)" r="5" style="visibility: hidden;"/>
            </g>
            <g class="node" id="n27">
                <circle class="node-circle multimarker-circle" transform="translate(1250.2296752929688,-326.54026794433594)" r="5" style="visibility: hidden;"/>
            </g>
            <g class="node" id="n28">
                <circle class="node-circle metabolite-circle" transform="translate(1405.2296752929688,-326.54026794433594)" r="20"/>
                <text class="node-label label" visibility="visible" transform="translate(1378.2296752929688,-286.54026794433594)">2-Oxoglutarate</text>
            </g>
            <g class="node" id="n29">
                <circle class="node-circle metabolite-circle" transform="translate(1335.2296752929688,-406.54026794433594)" r="10"/>
                <text class="node-label label" visibility="visible" transform="translate(1319.0296752929687,-426.54026794433594)">H+</text>
            </g>
            <g class="node" id="n30">
                <circle class="node-circle metabolite-circle" transform="translate(1102.4796752929688,-208.62347412109375)" r="10"/>
                <text class="node-label label" visibility="visible" transform="translate(931.3959350585938,-172.4151611328125)">Nicotinamide adenine dinucleotide</text>
            </g>
            <g class="node" id="n31">
                <circle class="node-circle metabolite-circle" transform="translate(1335.2296752929688,-246.54026794433594)" r="10"/>
                <text class="node-label label" visibility="visible" transform="translate(1302.8296752929687,-206.54026794433594)">Nicotinamide adenine dinucleotide - reduced</text>
            </g>
            <g class="node" id="n32">
                <circle class="node-circle multimarker-circle" transform="translate(892.6463623046875,-68.70608520507812)" r="5" style="visibility: hidden;"/>
            </g>
            <g class="node" id="n33">
                <circle class="node-circle midmarker-circle" transform="translate(872.6463623046875,-68.70608520507812)" r="5" style="visibility: hidden;"/>
            </g>
            <g class="node" id="n34">
                <circle class="node-circle multimarker-circle" transform="translate(852.6463623046875,-68.70608520507812)" r="5" style="visibility: hidden;"/>
            </g>
            <g class="node" id="n35">
                <circle class="node-circle metabolite-circle" transform="translate(1047.6463623046875,-68.70608520507812)" r="20"/>
                <text class="node-label label" visibility="visible" transform="translate(1004.4463623046875,-28.706085205078125)">L-Aspartate</text>
            </g>
            <g class="node" id="n36">
                <circle class="node-circle metabolite-circle" transform="translate(767.6463623046875,-148.70608520507812)" r="10"/>
                <text class="node-label label" visibility="visible" transform="translate(751.4463623046875,-168.70608520507812)">H+</text>
            </g>
            <g class="node" id="n37">
                <circle class="node-circle metabolite-circle" transform="translate(767.6463623046875,11.293914794921875)" r="10"/>
                <text class="node-label label" visibility="visible" transform="translate(735.2463623046874,51.293914794921875)">Iminoaspartate</text>
            </g>
            <g class="node" id="n38">
                <circle class="node-circle metabolite-circle" transform="translate(977.6463623046875,11.293914794921875)" r="10"/>
                <text class="node-label label" visibility="visible" transform="translate(956.0463623046876,51.293914794921875)">O2 O2</text>
            </g>
            <g class="node" id="n39">
                <circle class="node-circle multimarker-circle" transform="translate(904.0213012695312,192.9197540283203)" r="5" style="visibility: hidden;"/>
            </g>
            <g class="node" id="n40">
                <circle class="node-circle midmarker-circle" transform="translate(884.0213012695312,192.9197540283203)" r="5" style="visibility: hidden;"/>
            </g>
            <g class="node" id="n41">
                <circle class="node-circle multimarker-circle" transform="translate(864.0213012695312,192.9197540283203)" r="5" style="visibility: hidden;"/>
            </g>
            <g class="node" id="n42">
                <circle class="node-circle metabolite-circle" transform="translate(989.0213012695312,272.9197540283203)" r="10"/>
                <text class="node-label label" visibility="visible" transform="translate(967.4213012695313,312.9197540283203)">O2 O2</text>
            </g>
            <g class="node" id="n43">
                <circle class="node-circle metabolite-circle" transform="translate(1059.0213012695312,192.9197540283203)" r="20"/>
                <text class="node-label label" visibility="visible" transform="translate(931.4525024414063,232.9197540283203)">Pyridoxine 5'-phosphate</text>
            </g>
            <g class="node" id="n44">
                <circle class="node-circle metabolite-circle" transform="translate(779.0213012695312,272.9197540283203)" r="10"/>
                <text class="node-label label" visibility="visible" transform="translate(666.454541015625,308.83937072753906)">Pyridoxal 5'-phosphate</text>
            </g>
            <g class="node" id="n45">
                <circle class="node-circle multimarker-circle" transform="translate(1254.0213012695312,192.9197540283203)" r="5" style="visibility: hidden;"/>
            </g>
            <g class="node" id="n46">
                <circle class="node-circle midmarker-circle" transform="translate(1234.0213012695312,192.9197540283203)" r="5" style="visibility: hidden;"/>
            </g>
            <g class="node" id="n47">
                <circle class="node-circle multimarker-circle" transform="translate(1214.0213012695312,192.9197540283203)" r="5" style="visibility: hidden;"/>
            </g>
            <g class="node" id="n48">
                <circle class="node-circle metabolite-circle" transform="translate(1205.8965454101562,67.04486465454102)" r="10"/>
                <text class="node-label label" visibility="visible" transform="translate(1178.8965454101562,47.044864654541016)">CO2 CO2</text>
            </g>
            <g class="node" id="n49">
                <circle class="node-circle metabolite-circle" transform="translate(1409.0213012695312,192.9197540283203)" r="20"/>
                <text class="node-label label" visibility="visible" transform="translate(1365.8213012695312,232.9197540283203)">1-deoxy-D-xylulose 5-phosphate</text>
            </g>
            <g class="node" id="n50">
                <circle class="node-circle metabolite-circle" transform="translate(1147.9796752929688,93.96136474609375)" r="10"/>
                <text class="node-label label" visibility="visible" transform="translate(1080.1755981445312,73.96136474609375)">H2O H2O</text>
            </g>
            <g class="node" id="n51">
                <circle class="node-circle metabolite-circle" transform="translate(1129.0213012695312,272.9197540283203)" r="10"/>
                <text class="node-label label" visibility="visible" transform="translate(1112.8213012695312,312.9197540283203)">H+</text>
            </g>
            <g class="node" id="n52">
                <circle class="node-circle metabolite-circle" transform="translate(1339.0213012695312,112.91975402832031)" r="10"/>
                <text class="node-label label" visibility="visible" transform="translate(1312.0213012695312,92.91975402832031)">Nicotinamide adenine dinucleotide</text>
            </g>
            <g class="node" id="n53">
                <circle class="node-circle metabolite-circle" transform="translate(1171.7713012695312,349.12806701660156)" r="10"/>
                <text class="node-label label" visibility="visible" transform="translate(1016.9592529296874,413.61045837402344)">Nicotinamide adenine dinucleotide - reduced</text>
            </g>
            <g class="node" id="n54">
                <circle class="node-circle metabolite-circle" transform="translate(1339.0213012695312,272.9197540283203)" r="10"/>
                <text class="node-label label" visibility="visible" transform="translate(1301.2213012695313,312.9197540283203)">O-Phospho-4-hydroxy-L-threonine</text>
            </g>
            <g class="node" id="n55">
                <circle class="node-circle metabolite-circle" transform="translate(1244.8547973632812,376.04457092285156)" r="10"/>
                <text class="node-label label" visibility="visible" transform="translate(1092.6820434570313,379.3209686279297)">Phosphate</text>
            </g>
            <g class="node" id="n56">
                <circle class="node-circle multimarker-circle" transform="translate(873.6878662109375,530.3791809082031)" r="5" style="visibility: hidden;"/>
            </g>
            <g class="node" id="n57">
                <circle class="node-circle midmarker-circle" transform="translate(853.6878662109375,530.3791809082031)" r="5" style="visibility: hidden;"/>
            </g>
            <g class="node" id="n58">
                <circle class="node-circle multimarker-circle" transform="translate(833.6878662109375,530.3791809082031)" r="5" style="visibility: hidden;"/>
            </g>
            <g class="node" id="n59">
                <circle class="node-circle metabolite-circle" transform="translate(1028.6878662109375,530.3791809082031)" r="20"/>
                <text class="node-label label" visibility="visible" transform="translate(988.0055053710937,566.2987976074219)">H+</text>
            </g>
            <g class="node" id="n60">
                <circle class="node-circle metabolite-circle" transform="translate(748.6878662109375,610.3791809082031)" r="10"/>
                <text class="node-label label" visibility="visible" transform="translate(706.685888671875,646.2987976074219)">O2 O2</text>
            </g>
            <g class="node" id="n61">
                <circle class="node-circle metabolite-circle" transform="translate(958.6878662109375,610.3791809082031)" r="10"/>
                <text class="node-label label" visibility="visible" transform="translate(825.5975341796875,650.3791809082031)">Superoxide anion</text>
            </g>
            <g class="node" id="n62">
                <circle class="node-circle multimarker-circle" transform="translate(1153.6878662109375,610.3791809082031)" r="5" style="visibility: hidden;"/>
            </g>
            <g class="node" id="n63">
                <circle class="node-circle midmarker-circle" transform="translate(1133.6878662109375,610.3791809082031)" r="5" style="visibility: hidden;"/>
            </g>
            <g class="node" id="n64">
                <circle class="node-circle multimarker-circle" transform="translate(1113.6878662109375,610.3791809082031)" r="5" style="visibility: hidden;"/>
            </g>
            <g class="node" id="n66">
                <circle class="node-circle metabolite-circle" transform="translate(1238.6878662109375,690.3791809082031)" r="10"/>
                <text class="node-label label" visibility="visible" transform="translate(1217.0878662109376,730.3791809082031)">O2 O2</text>
            </g>
            <g class="node" id="n67">
                <circle class="node-circle metabolite-circle" transform="translate(1028.6878662109375,690.3791809082031)" r="10"/>
                <text class="node-label label" visibility="visible" transform="translate(1007.0878662109375,730.3791809082031)">Ubiquinone-8</text>
            </g>
            <g class="node" id="n68">
                <circle class="node-circle metabolite-circle" transform="translate(1308.6878662109375,610.3791809082031)" r="20"/>
                <text class="node-label label" visibility="visible" transform="translate(1276.2878662109374,650.3791809082031)">Ubiquinol-8</text>
            </g>
            <g class="node" id="n77">
                <circle class="node-circle multimarker-circle" transform="translate(881.271240234375,901.9636993408203)" r="5" style="visibility: hidden;"/>
            </g>
            <g class="node" id="n78">
                <circle class="node-circle midmarker-circle" transform="translate(861.271240234375,901.9636993408203)" r="5" style="visibility: hidden;"/>
            </g>
            <g class="node" id="n79">
                <circle class="node-circle multimarker-circle" transform="translate(841.271240234375,901.9636993408203)" r="5" style="visibility: hidden;"/>
            </g>
            <g class="node" id="n80">
                <circle class="node-circle metabolite-circle" transform="translate(1036.271240234375,901.9636993408203)" r="20"/>
                <text class="node-label label" visibility="visible" transform="translate(993.071240234375,941.9636993408203)">L-Malate</text>
            </g>
            <g class="node" id="n81">
                <circle class="node-circle metabolite-circle" transform="translate(966.271240234375,981.9636993408203)" r="10"/>
                <text class="node-label label" visibility="visible" transform="translate(944.6712402343751,1021.9636993408203)">O2 O2</text>
            </g>
            <g class="node" id="n82">
                <circle class="node-circle metabolite-circle" transform="translate(756.271240234375,981.9636993408203)" r="10"/>
                <text class="node-label label" visibility="visible" transform="translate(729.271240234375,1021.9636993408203)">Oxaloacetate</text>
            </g>
        </g>
        <g id="beziers"/>
        <g id="text-labels">
            <g id="l3" class="text-label">
                <text class="label edit-text-cursor" transform="translate(127.92022705078125,1202.5706787109375)" style="cursor: text;">E7 alone on glucose</text>
            </g>
        </g>
        <g id="direction-arrow-container" transform="translate(547.0380249023438,1031.25341796875)rotate(90)">
            <path class="direction-arrow" d="M0 -5 L0 5 L20 5 L20 10 L30 0 L20 -10 L20 -5 Z" style="visibility: hidden;" transform="translate(30,0)scale(2.5)"/>
        </g>
    </g>
</svg>